{
    "coord": {
        "lon": 27.5667,
        "lat": 53.9
    },
    "weather": [
        {
            "id": 701,
            "main": "Mist",
            "description": "mist",
            "icon": "50n"
        }
    ],
    "base": "stations",
    "main": {
        "temp": -1.05,
        "feels_like": -4.71,
        "temp_min": -1.11,
        "temp_max": -1,
        "pressure": 1022,
        "humidity": 93
    },
    "visibility": 3800,
    "wind": {
        "speed": 2,
        "deg": 240
    },
    "clouds": {
        "all": 100
    },
    "dt": 1613944632,
    "sys": {
        "type": 1,
        "id": 8939,
        "country": "BY",
        "sunrise": 1613970860,
        "sunset": 1614007947
    },
    "timezone": 10800,
    "id": 625144,
    "name": "Minsk",
    "cod": 200
}


{
    "lat": 53.941,
    "lon": -27.4819,
    "timezone": "Etc/GMT+2",
    "timezone_offset": -7200,
    "current": {
        "dt": 1614475585,
        "sunrise": 1614415371,
        "sunset": 1614453764,
        "temp": 279.35,
        "feels_like": 275,
        "pressure": 1021,
        "humidity": 81,
        "dew_point": 276.34,
        "uvi": 0,
        "clouds": 100,
        "visibility": 10000,
        "wind_speed": 4.11,
        "wind_deg": 190,
        "weather": [
            {
                "id": 804,
                "main": "Clouds",
                "description": "overcast clouds",
                "icon": "04n"
            }
        ]
    },
    hourly": [
            {
                "dt": 1614474000,
                "temp": 6.2,
                "feels_like": 1.85,
                "pressure": 1021,
                "humidity": 81,
                "dew_point": 3.19,
                "uvi": 0,
                "clouds": 100,
                "visibility": 10000,
                "wind_speed": 4.11,
                "wind_deg": 190,
                "weather": [
                    {
                        "id": 804,
                        "main": "Clouds",
                        "description": "overcast clouds",
                        "icon": "04n"
                    }
                ],
                "pop": 0.34
            },
        
        
        "daily":[
              {
                 "dt":1614448800,
                 "sunrise":1614430002,
                 "sunset":1614471076,
                 "temp":{
                    "day":285.66,
                    "min":282.41,
                    "max":291.7,
                    "night":291.37,
                    "eve":291.37,
                    "morn":283.14
                 },
                 "feels_like":{
                    "day":283.67,
                    "night":289.61,
                    "eve":291.88,
                    "morn":281.24
                 },
                 "pressure":1016,
                 "humidity":88,
                 "dew_point":283.84,
                 "wind_speed":3.13,
                 "wind_deg":100,
                 "weather":[
                    {
                       "id":501,
                       "main":"Rain",
                       "description":"moderate rain",
                       "icon":"10d"
                    }
                 ],
                 "clouds":99,
                 "pop":0.75,
                 "rain":1.81,
                 "uvi":2.67
              },
              {
                 "dt":1614535200,
                 "sunrise":161451633
